datacheck2
…
districts %>% filter(State =='Delhi') %>% nrow()

## [1] 420

The numbers between rows with state Delhi and district Delhi are the same. That means district level data of Dellhi is not organized in districts. Is district-wise data in Delhi collected in raw_data_combined? Actually, not. If you run the following code, you can check that district-level data hasnt been collected since 06/05/2020.

raw_data_combined %>% filter(detected_state == "Delhi") %>% View()
raw_data_combined %>% filter(detected_state == "Delhi" &
                               detected_district != 'Others') %>% View()

# E
districts %>% filter(District =='Capital Complex') %>% head(30) # No COVID cases...?

## # A tibble: 30 x 8
##    Date       State        District    Confirmed Recovered Deceased Other Tested
##    <date>     <chr>        <chr>           <dbl>     <dbl>    <dbl> <dbl>  <dbl>
##  1 2020-06-01 Arunachal P~ Capital Co~         0         0        0     0   1062
##  2 2020-06-02 Arunachal P~ Capital Co~         0         0        0     0   1062
##  3 2020-06-03 Arunachal P~ Capital Co~         0         0        0     0   1190
##  4 2020-06-04 Arunachal P~ Capital Co~         0         0        0     0   1218
##  5 2020-06-05 Arunachal P~ Capital Co~         0         0        0     0   1381
##  6 2020-06-06 Arunachal P~ Capital Co~         0         0        0     0   1381
##  7 2020-06-07 Arunachal P~ Capital Co~         0         0        0     0   1574
##  8 2020-06-08 Arunachal P~ Capital Co~         0         0        0     0   1625
##  9 2020-06-09 Arunachal P~ Capital Co~         0         0        0     0   1723
## 10 2020-06-10 Arunachal P~ Capital Co~         0         0        0     0   1723
## # ... with 20 more rows
…
#Messages we want to focus on :
mes <- c("District-wise numbers are out-dated as cumulative counts for each district are not reported in bulletin", "District-wise numbers are out-dated as cumulative counts for each district are not reported in Telangana bulletin")

district_wise %>% filter(District_Notes %in% mes)

## # A tibble: 52 x 15
##    State_Code State District_Key District Confirmed Active Recovered Deceased
##    <chr>      <chr> <chr>        <chr>        <dbl>  <dbl>     <dbl>    <dbl>
##  1 AN         Anda~ AN_Nicobars  Nicobars         0      0         0        0
##  2 AN         Anda~ AN_North an~ North A~         1      0         1        0
##  3 AN         Anda~ AN_South An~ South A~        51     19        32        0
##  4 DL         Delhi DL_Central ~ Central~       184    184         0        0
##  5 DL         Delhi DL_East Del~ East De~        38     38         0        0
##  6 DL         Delhi DL_New Delhi New Del~        37     37         0        0
##  7 DL         Delhi DL_North De~ North D~        60     60         0        0
##  8 DL         Delhi DL_North Ea~ North E~        25     25         0        0
##  9 DL         Delhi DL_North We~ North W~        32     31         0        1
## 10 DL         Delhi DL_Shahdara  Shahdara        48     48         0        0
## # ... with 42 more rows, and 7 more variables: Migrated_Other <dbl>,
## #   Delta_Confirmed <dbl>, Delta_Active <dbl>, Delta_Recovered <dbl>,
## #   Delta_Deceased <dbl>, District_Notes <chr>, Last_Updated <lgl>

We can see that districts in Andaman and Nicobar Islands, Delhi, Goa, or Telangana have the message. Also, all districts in the states have the message.

states_mes <- c("Andaman and Nicobar Islands", "Delhi", "Goa", "Telangana")
district_wise %>% filter(State %in% states_mes)

## # A tibble: 56 x 15
##    State_Code State District_Key District Confirmed Active Recovered Deceased
##    <chr>      <chr> <chr>        <chr>        <dbl>  <dbl>     <dbl>    <dbl>
##  1 AN         Anda~ AN_Nicobars  Nicobars         0      0         0        0
##  2 AN         Anda~ AN_North an~ North A~         1      0         1        0
##  3 AN         Anda~ AN_South An~ South A~        51     19        32        0
##  4 DL         Delhi DL_Central ~ Central~       184    184         0        0
##  5 DL         Delhi DL_East Del~ East De~        38     38         0        0
##  6 DL         Delhi DL_New Delhi New Del~        37     37         0        0
##  7 DL         Delhi DL_North De~ North D~        60     60         0        0
##  8 DL         Delhi DL_North Ea~ North E~        25     25         0        0
##  9 DL         Delhi DL_North We~ North W~        32     31         0        1
## 10 DL         Delhi DL_Shahdara  Shahdara        48     48         0        0
## # ... with 46 more rows, and 7 more variables: Migrated_Other <dbl>,
## #   Delta_Confirmed <dbl>, Delta_Active <dbl>, Delta_Recovered <dbl>,
## #   Delta_Deceased <dbl>, District_Notes <chr>, Last_Updated <lgl>
…
raw_data_combined %>% filter(detected_state == "Telangana") %>% View()
raw_data_combined %>% filter(detected_state == "Telangana" &
                               detected_district != 'Others') %>% View()

For the list of districts in B, are they included in one of the states above(Andaman and Nicobar Islands, Delhi, Goa, or Telangana)? The districts in B are removed in districts because of their out-dated data? Not every district. They are inlcuded in one of the following states : (Andaman and Nicobar Islands, Delhi, Goa, Telangana, Assam, Manipur, or Sikkim)

B[!(B %in% c(lists$District, lists$District2))]

## [1] "Capf Personnel"

lists[lists$District %in% B | lists$District2 %in% B , ]

## # A tibble: 95 x 4
##    State           District             `State Type`    District2               
##    <chr>           <chr>                <chr>           <chr>                   
##  1 Andaman Nicobar North Middle Andaman Union Territory North And Middle Andaman
##  2 Andaman Nicobar South Andaman        Union Territory <NA>                    
##  3 Assam           Baksa                State           <NA>                    
##  4 Assam           Barpeta              State           <NA>                    
##  5 Assam           Biswanath            State           <NA>                    
##  6 Assam           Bongaigaon           State           <NA>                    
##  7 Assam           Cachar               State           <NA>                    
##  8 Assam           Charaideo            State           <NA>                    
##  9 Assam           Chirang              State           <NA>                    
## 10 Assam           Darrang              State           <NA>                    
## # ... with 85 more rows
…
